<?xml version="1.0" standalone="no"?>
<!DOCTYPE svg PUBLIC "-//W3C//DTD SVG 1.1//EN" "http://www.w3.org/Graphics/SVG/1.1/DTD/svg11.dtd" >
<svg xmlns="http://www.w3.org/2000/svg">
<metadata>Generated by IcoMoon</metadata>
<defs>
<font id="icomoon" horiz-adv-x="1024">
<font-face units-per-em="1024" ascent="960" descent="-64" />
<missing-glyph horiz-adv-x="1024" />
<glyph unicode="&#x20;" horiz-adv-x="512" d="" />
<glyph unicode="&#xea62;" glyph-name="bold" d="M707.88 475.348c37.498 44.542 60.12 102.008 60.12 164.652 0 141.16-114.842 256-256 256h-320v-896h384c141.158 0 256 114.842 256 256 0 92.956-49.798 174.496-124.12 219.348zM384 768h101.5c55.968 0 101.5-57.42 101.5-128s-45.532-128-101.5-128h-101.5v256zM543 128h-159v256h159c58.45 0 106-57.42 106-128s-47.55-128-106-128z" />
<glyph unicode="&#xea63;" glyph-name="underline" d="M704 896h128v-416c0-159.058-143.268-288-320-288-176.73 0-320 128.942-320 288v416h128v-416c0-40.166 18.238-78.704 51.354-108.506 36.896-33.204 86.846-51.494 140.646-51.494s103.75 18.29 140.646 51.494c33.116 29.802 51.354 68.34 51.354 108.506v416zM192 128h640v-128h-640z" />
<glyph unicode="&#xea64;" glyph-name="italic" d="M896 896v-64h-128l-320-768h128v-64h-448v64h128l320 768h-128v64z" />
<glyph unicode="&#xea65;" glyph-name="strikethrough" d="M1024 448v-64h-234.506c27.504-38.51 42.506-82.692 42.506-128 0-70.878-36.66-139.026-100.58-186.964-59.358-44.518-137.284-69.036-219.42-69.036-82.138 0-160.062 24.518-219.42 69.036-63.92 47.938-100.58 116.086-100.58 186.964h128c0-69.382 87.926-128 192-128s192 58.618 192 128c0 69.382-87.926 128-192 128h-512v64h299.518c-2.338 1.654-4.656 3.324-6.938 5.036-63.92 47.94-100.58 116.086-100.58 186.964s36.66 139.024 100.58 186.964c59.358 44.518 137.282 69.036 219.42 69.036 82.136 0 160.062-24.518 219.42-69.036 63.92-47.94 100.58-116.086 100.58-186.964h-128c0 69.382-87.926 128-192 128s-192-58.618-192-128c0-69.382 87.926-128 192-128 78.978 0 154.054-22.678 212.482-64h299.518z" />
<glyph unicode="&#xea80;" glyph-name="embed2" horiz-adv-x="1280" d="M832 224l96-96 320 320-320 320-96-96 224-224zM448 672l-96 96-320-320 320-320 96 96-224 224zM701.298 809.481l69.468-18.944-191.987-704.026-69.468 18.944 191.987 704.026z" />
</font></defs></svg>